Neospora
…
transm_h_dat <- transm_h %>% 
  pivot_longer(cols = ac_0:ac_63, 
              names_prefix= "ac_", 
               names_to = "dias", 
                values_to = "ac")  %>% 
   mutate_at(vars(dias), as.numeric) %>% 
  mutate_at(vars(id_ternero, trat, sexo), as.factor)
  #select(id_ternero, trat, sexo,  ac_0) %>% 
  #mutate(binom_ac_vaca  = ifelse(ac_vaca >= 6,1,0))  
  # filter(ac<100) %>%
  # filter(dias<250) 
transm_h_dat

## # A tibble: 28 x 6
##    id_ternero trat    sexo  ac_250  dias    ac
##    <fct>      <fct>   <fct>  <dbl> <dbl> <dbl>
##  1 5          Control M         NA     0 -2.73
##  2 5          Control M         NA     7 12.7 
##  3 5          Control M         NA    14 13.0 
##  4 5          Control M         NA    63  1.25
##  5 25         Control M         NA     0 -2.24
##  6 25         Control M         NA     7 23.6 
##  7 25         Control M         NA    14 18.5 
##  8 25         Control M         NA    63  5.67
##  9 36         Control M         NA     0 -2.03
## 10 36         Control M         NA     7  0   
## # ... with 18 more rows
…
serocon_dat <- serocon %>% 
  pivot_longer(cols = ac_0:ac_63, 
              names_prefix= "ac_", 
               names_to = "dias", 
                values_to = "ac")  %>% 
   mutate_at(vars(dias), as.numeric) %>% 
  mutate_at(vars(id_ternero, trat, sexo), as.factor)
  #select(id_ternero, trat, sexo,  ac_0) %>% 
  #mutate(binom_ac_vaca  = ifelse(ac_vaca >= 6,1,0))  
  # filter(ac<100) %>%
  # filter(dias<250) 
serocon_dat

## # A tibble: 28 x 6
##    id_ternero trat    sexo  ac_250  dias    ac
##    <fct>      <fct>   <fct>  <dbl> <dbl> <dbl>
##  1 5          Control M         NA     0 -2.73
##  2 5          Control M         NA     7 12.7 
##  3 5          Control M         NA    14 13.0 
##  4 5          Control M         NA    63  1.25
##  5 25         Control M         NA     0 -2.24
##  6 25         Control M         NA     7 23.6 
##  7 25         Control M         NA    14 18.5 
##  8 25         Control M         NA    63  5.67
##  9 36         Control M         NA     0 -2.03
## 10 36         Control M         NA     7  0   
## # ... with 18 more rows
…
serocon_dat <- serocon %>% 
  pivot_longer(cols = ac_0:ac_63, 
              names_prefix= "ac_", 
               names_to = "dias", 
                values_to = "ac")  %>% 
   mutate_at(vars(dias), as.factor) %>% 
  mutate_at(vars(id_ternero, trat, sexo), as.factor)
  #select(id_ternero, trat, sexo,  ac_0) %>% 
  #mutate(binom_ac_vaca  = ifelse(ac_vaca >= 6,1,0))  
  # filter(ac<100) %>%
  # filter(dias<250) 
serocon_dat

## # A tibble: 28 x 6
##    id_ternero trat    sexo  ac_250 dias     ac
##    <fct>      <fct>   <fct>  <dbl> <fct> <dbl>
##  1 5          Control M         NA 0     -2.73
##  2 5          Control M         NA 7     12.7 
##  3 5          Control M         NA 14    13.0 
##  4 5          Control M         NA 63     1.25
##  5 25         Control M         NA 0     -2.24
##  6 25         Control M         NA 7     23.6 
##  7 25         Control M         NA 14    18.5 
##  8 25         Control M         NA 63     5.67
##  9 36         Control M         NA 0     -2.03
## 10 36         Control M         NA 7      0   
## # ... with 18 more rows
…
## # A tibble: 4 x 4
##   dias      n    ac    sd
##   <fct> <int> <dbl> <dbl>
## 1 0         7 -2.66    NA
## 2 14        7 17.7     NA
## 3 63        7  2.35    NA
## 4 7         7 15.8     NA

serocon_dat

## # A tibble: 28 x 6
##    id_ternero trat    sexo  ac_250 dias     ac
##    <fct>      <fct>   <fct>  <dbl> <fct> <dbl>
##  1 5          Control M         NA 0     -2.73
##  2 5          Control M         NA 7     12.7 
##  3 5          Control M         NA 14    13.0 
##  4 5          Control M         NA 63     1.25
##  5 25         Control M         NA 0     -2.24
##  6 25         Control M         NA 7     23.6 
##  7 25         Control M         NA 14    18.5 
##  8 25         Control M         NA 63     5.67
##  9 36         Control M         NA 0     -2.03
## 10 36         Control M         NA 7      0   
## # ... with 18 more rows
…
serocon_dat <- serocon %>% 
  pivot_longer(cols = ac_0:ac_63, 
              names_prefix= "ac_", 
               names_to = "dias", 
                values_to = "ac")  %>% 
   mutate_at(vars(dias), as.factor) %>% 
  mutate_at(vars(id_ternero, trat, sexo), as.factor)
  #select(id_ternero, trat, sexo,  ac_0) %>% 
  #mutate(binom_ac_vaca  = ifelse(ac_vaca >= 6,1,0))  
  # filter(ac<100) %>%
  # filter(dias<250) 
serocon_dat

## # A tibble: 28 x 6
##    id_ternero trat    sexo  ac_250 dias     ac
##    <fct>      <fct>   <fct>  <dbl> <fct> <dbl>
##  1 5          Control M         NA 0     -2.73
##  2 5          Control M         NA 7     12.7 
##  3 5          Control M         NA 14    13.0 
##  4 5          Control M         NA 63     1.25
##  5 25         Control M         NA 0     -2.24
##  6 25         Control M         NA 7     23.6 
##  7 25         Control M         NA 14    18.5 
##  8 25         Control M         NA 63     5.67
##  9 36         Control M         NA 0     -2.03
## 10 36         Control M         NA 7      0   
## # ... with 18 more rows

correlacion<-serocon_dat %>%  select(ac, dias)
correlacion

## # A tibble: 28 x 2
##       ac dias 
##    <dbl> <fct>
##  1 -2.73 0    
##  2 12.7  7    
##  3 13.0  14   
##  4  1.25 63   
##  5 -2.24 0    
##  6 23.6  7    
##  7 18.5  14   
##  8  5.67 63   
##  9 -2.03 0    
## 10  0    7    
## # ... with 18 more rows
…
